{
	"info": {
		"_postman_id": "44da62d6-d2c0-4828-9089-e920eaa99e2a",
		"name": "s34",
		"schema": "https://schema.getpostman.com/json/collection/v2.1.0/collection.json",
		"_exporter_id": "27182293"
	},
	"item": [
		{
			"name": "discussion",
			"item": [
				{
					"name": "show hello wordl",
					"request": {
						"method": "GET",
						"header": [],
						"url": {
							"raw": "localhost:4000",
							"host": [
								"localhost"
							],
							"port": "4000"
						}
					},
					"response": []
				},
				{
					"name": "hello",
					"request": {
						"method": "GET",
						"header": [],
						"url": {
							"raw": "localhost:4000/hello",
							"host": [
								"localhost"
							],
							"port": "4000",
							"path": [
								"hello"
							]
						}
					},
					"response": []
				},
				{
					"name": "New Request",
					"request": {
						"method": "POST",
						"header": [],
						"body": {
							"mode": "raw",
							"raw": "{\r\n    \"firstName\" : \"Alexys\",\r\n    \"lastName\" : \"De Guzman\"\r\n}",
							"options": {
								"raw": {
									"language": "json"
								}
							}
						},
						"url": {
							"raw": "localhost:4000/hello",
							"host": [
								"localhost"
							],
							"port": "4000",
							"path": [
								"hello"
							]
						}
					},
					"response": []
				},
				{
					"name": "signup",
					"request": {
						"method": "POST",
						"header": [],
						"body": {
							"mode": "raw",
							"raw": "{\r\n    \"username\" : \"travis scott\",\r\n    \"password\" : \"sicko mode\"\r\n}",
							"options": {
								"raw": {
									"language": "json"
								}
							}
						},
						"url": {
							"raw": "localhost:4000/signup",
							"host": [
								"localhost"
							],
							"port": "4000",
							"path": [
								"signup"
							]
						}
					},
					"response": []
				},
				{
					"name": "change-password",
					"request": {
						"method": "PUT",
						"header": [],
						"body": {
							"mode": "raw",
							"raw": "{\r\n    \"username\" : \"travis scott\"\r\n}",
							"options": {
								"raw": {
									"language": "json"
								}
							}
						},
						"url": {
							"raw": "localhost:4000/change-password",
							"host": [
								"localhost"
							],
							"port": "4000",
							"path": [
								"change-password"
							]
						}
					},
					"response": []
				}
			]
		},
		{
			"name": "activity",
			"item": [
				{
					"name": "home",
					"request": {
						"method": "GET",
						"header": [],
						"url": {
							"raw": "localhost:4000/home",
							"host": [
								"localhost"
							],
							"port": "4000",
							"path": [
								"home"
							]
						}
					},
					"response": []
				},
				{
					"name": "users",
					"request": {
						"method": "GET",
						"header": [],
						"url": {
							"raw": "localhost:4000/users",
							"host": [
								"localhost"
							],
							"port": "4000",
							"path": [
								"users"
							]
						}
					},
					"response": []
				},
				{
					"name": "delete-user",
					"request": {
						"method": "DELETE",
						"header": [],
						"body": {
							"mode": "raw",
							"raw": "{\r\n    \"username\" : \" \"\r\n}",
							"options": {
								"raw": {
									"language": "json"
								}
							}
						},
						"url": {
							"raw": "localhost:4000/delete-user",
							"host": [
								"localhost"
							],
							"port": "4000",
							"path": [
								"delete-user"
							]
						}
					},
					"response": []
				}
			]
		}
	]
}