{
    "courseID": 1,
    "name": "intro to HTML",
    "price": 9999,
    "description": "in here you will learn basics of html",
    "slot": 30,
    "enrollees":[{
        "userID": 1
    }]
}

{
    "courseID": 2,
    "name": "intro to Javascript",
    "price": 9999,
    "description": "in here you will learn basics of javascript",
    "slot": 30,
    "enrollees":[]
}